/**
 * tutorial.i
 *
 *  Created on: Aug 23, 2019
 *      Author: consultit
 */

%module tutorial
 %{
 /* Put header files here or function declarations like below */
 extern double My_variable;
 extern int fact(int n);
 extern int my_mod(int x, int y);
 extern char *get_time();
 %}
 
 extern double My_variable;
 extern int fact(int n);
 extern int my_mod(int x, int y);
 extern char *get_time();
 